%YAML 1.1
%TAG !u! tag:unity3d.com,2011:
--- !u!162 &1
EditorUserSettings:
  m_ObjectHideFlags: 0
  serializedVersion: 4
  m_ConfigSettings:
    RecentlyUsedScenePath-0:
      value: 22424703114646680e0b0227036c7d1c1719130b1e66333e243d04
      flags: 0
    RecentlyUsedScenePath-1:
      value: 224247031146467e150f01321c267e0305120c39631b2535232c0e7cd1e13928eee205eae2343a722c0ce6281d
      flags: 0
    RecentlyUsedScenePath-2:
      value: 22424703114646760c07026c052d56040f
      flags: 0
    RecentlyUsedScenePath-3:
      value: 224247031146464f081d186c052d56040f
      flags: 0
    vcSharedLogLevel:
      value: 0d5e400f0650
      flags: 0
  m_VCAutomaticAdd: 1
  m_VCDebugCom: 0
  m_VCDebugCmd: 0
  m_VCDebugOut: 0
  m_SemanticMergeMode: 2
  m_VCShowFailedCheckout: 1
  m_VCOverwriteFailedCheckoutAssets: 1
  m_VCProjectOverlayIcons: 1
  m_VCHierarchyOverlayIcons: 1
  m_VCOtherOverlayIcons: 1
  m_VCAllowAsyncUpdate: 1
